600194035020420130610000000001200020000565401840038221056000000陳品潔                                            P223326931                                                                                                                        東蘊生技股份有限公司3                                                                      2013/04/01:2013/04/30獎金                                                  
600194035020720130610000000000600020002530041979470042536000000蕭宇軒                                            D122737877                                                                                                                        東蘊生技股份有限公司3                                                                      2013/04/01:2013/04/30獎金                                                  
600194035020820130610000000095650020014728726642220061472000000黃奕詳                                            D122643138                                                                                                                        東蘊生技股份有限公司3          onlylovemy2006@yahoo.com.tw                                 2013/04/01:2013/04/30獎金                                                  
600194035020920130610000000000600020003101681222750123109000000邱采卉                                            A225349092                                                                                                                        東蘊生技股份有限公司3                                                                      2013/04/01:2013/04/30獎金                                                  
600194035021020130610000000095650020403551409650000094035000000林逸寧                                            B222220975                                                                                                                        東蘊生技股份有限公司3          itsning10@hotmail.com                                       2013/04/01:2013/04/30獎金                                                  
600194035021120130610000000012600020015317655978110061531000000林珈自                                            R223807111                                                                                                                        東蘊生技股份有限公司3          polly781123@yahoo.com.tw                                    2013/04/01:2013/04/30獎金                                                  
600194035021220130610000000013200020582151501247000095821000000陳孟琦                                            L223916576                                                                                                                        東蘊生技股份有限公司3          sallynba12345678@hotmail.com                                2013/04/01:2013/04/30獎金                                                  
600194035021320130610000000000600020014141109129357000021000000蔡乙兆                                            L123893496                                                                                                                        東蘊生技股份有限公司3          asz26521353@yahoo.com.tw                                    2013/04/01:2013/04/30獎金                                                  
600194035021420130610000000031200020001090045350330041090000000許宏舟                                            N125032902                                                                                                                        東蘊生技股份有限公司3          rs_aq9156@yahoo.com.tw                                      2013/04/01:2013/04/30獎金                                                  
600194035021520130610000000000600020012218722111520061221000000簡順宏                                            T124137770                                                                                                                        東蘊生技股份有限公司3          ga663311@yahoo.com.tw                                       2013/04/01:2013/04/30獎金                                                  
600194035021620130610000000031200020006155501217397000021000000黃巧綸                                            J222664572                                                                                                                        東蘊生技股份有限公司3                                                                      2013/04/01:2013/04/30獎金                                                  
600194035021720130610000000000600020000622506086210076227000000鍾健廷                                            H123942885                                                                                                                        東蘊生技股份有限公司3                                                                      2013/04/01:2013/04/30獎金                                                  
600194035021820130610000000025200020014139500498777000021000000陳柏仲                                            L124679454                                                                                                                        東蘊生技股份有限公司3                                                                      2013/04/01:2013/04/30獎金                                                  
600194035021920130610000000083890020014139500196487000021000000陳冠儒                                            L124351406                                                                                                                        東蘊生技股份有限公司3                                                                      2013/04/01:2013/04/30獎金                                                  
600194035022020130610000000178110020014139500196487000021000000陳冠儒                                            L124351406                                                                                                                        東蘊生技股份有限公司3                                                                      2013/04/01:2013/04/30獎金                                                  
600194035022120130610000000013200020000262201217200530503000000陳柏維                                            L124679221                                                                                                                        東蘊生技股份有限公司3                                                                      2013/04/01:2013/04/30獎金                                                  
600194035022220130610000000031200020030117808315067000021000000陳建良                                            P123610543                                                                                                                        東蘊生技股份有限公司3          79645242@gm.nfu.edu.tw                                      2013/04/01:2013/04/30獎金                                                  
600194035022320130610000000156020020014139500196487000021000000陳冠儒                                            L124351406                                                                                                                        東蘊生技股份有限公司3          joey6503@yahoo.com.tw                                       2013/04/01:2013/04/30獎金                                                  
600194035022420130610000000013800020006245302726878220624000000陳亭安                                            A229053275                                                                                                                        東蘊生技股份有限公司3          desingcom@edirect168.com                                    2013/04/01:2013/04/30獎金                                                  
600194035022520130610000000002550020000065060463500130062000000徐浩文                                            D122462017                                                                                                                        東蘊生技股份有限公司3          sos58582001@yahoo.com.tw                                    2013/04/01:2013/04/30獎金                                                  
600194035022620130610000000001800020002143805044557000021000000陳嘉宏                                            B122315299                                                                                                                        東蘊生技股份有限公司3          mit58904136@yahoo.com.tw                                    2013/04/01:2013/04/30獎金                                                  
600194035022720130610000000001800020002143805044557000021000000陳嘉宏                                            B122315299                                                                                                                        東蘊生技股份有限公司3          mit58904136@yahoo.com.tw                                    2013/04/01:2013/04/30獎金                                                  
600194035022820130610000000012600020028122800816707000021000000張雅雯                                            N224947586                                                                                                                        東蘊生技股份有限公司3          b4570249@yahoo.com.tw                                       2013/04/01:2013/04/30獎金                                                  
600194035023020130610000000002350020000067031940070210041000000王韋棋                                            F227285121                                                                                                                        東蘊生技股份有限公司3          c9_c9_9@yahoo.com.tw                                        2013/04/01:2013/04/30獎金                                                  
600194035023120130610000000000600020028122800816837000021000000張堡舜                                            F128657932                                                                                                                        東蘊生技股份有限公司3          a4570249@yahoo.com.tw                                       2013/04/01:2013/04/30獎金                                                  
600194035023220130610000000015400020028122800816837000021000000張堡舜                                            F128657932                                                                                                                        東蘊生技股份有限公司3          a4570249@yahoo.com.tw                                       2013/04/01:2013/04/30獎金                                                  
600194035023320130610000000001650020028122800816837000021000000張堡舜                                            F128657932                                                                                                                        東蘊生技股份有限公司3          a4570249@yahoo.com.tw                                       2013/04/01:2013/04/30獎金                                                  
600194035023420130610000000010050020028122800816837000021000000張堡舜                                            F128657932                                                                                                                        東蘊生技股份有限公司3                                                                      2013/04/01:2013/04/30獎金                                                  
600194035023520130610000000002550020002121107363387000021000000林溫庭                                            L124625116                                                                                                                        東蘊生技股份有限公司3                                                                      2013/04/01:2013/04/30獎金                                                  
600194035023620130610000000002550020001101602400147000021000000謝秉彣                                            C121431482                                                                                                                        東蘊生技股份有限公司3                                                                      2013/04/01:2013/04/30獎金                                                  
600194035023720130610000000002550020002605060535620132608000000陳柏勳                                            L124441469                                                                                                                        東蘊生技股份有限公司3                                                                      2013/04/01:2013/04/30獎金                                                  
600194035023820130610000000002550020002605060535620132608000000陳柏勳                                            L124441469                                                                                                                        東蘊生技股份有限公司3                                                                      2013/04/01:2013/04/30獎金                                                  
600194035023920130610000000002070020000422503946020074223000000林文健                                            L123956041                                                                                                                        東蘊生技股份有限公司3          a26232757@yahoo.com.tw                                      2013/04/01:2013/04/30獎金                                                  
600194035024020130610000000002070020014151501590577000021000000楊濬亦                                            L124680911                                                                                                                        東蘊生技股份有限公司3                                                                      2013/04/01:2013/04/30獎金                                                  
600194035024120130610000000002720020014141110557927000021000000許佩珊                                            L223615369                                                                                                                        東蘊生技股份有限公司3          helpme760722@yahoo.com.tw                                   2013/04/01:2013/04/30獎金                                                  
600194035024420130610000000001800020003925402669608220392000000蔡松原                                            L124373260                                                                                                                        東蘊生技股份有限公司3          vvvvv5v@hotmail.com                                         2013/04/01:2013/04/30獎金                                                  
600194035024520130610000000001800020003925402669608220392000000蔡松原                                            L124373260                                                                                                                        東蘊生技股份有限公司3          vvvvv5v@hotmail.com                                         2013/04/01:2013/04/30獎金                                                  
600194035024720130610000000013760020933251428492000099332000000賴奕樹                                            L124204135                                                                                                                        東蘊生技股份有限公司3          tu619225@yahoo.com.tw                                       2013/04/01:2013/04/30獎金                                                  
600194035024820130610000000001300020055627655755470065562000000蔡坤成                                            N125516672                                                                                                                        東蘊生技股份有限公司3          kevin81519@gmail.com                                        2013/04/01:2013/04/30獎金                                                  
600194035025020130610000000000700020002108724068020060213000000王朝威                                            L124322049                                                                                                                        東蘊生技股份有限公司3          jess940301@yahoo.com.tw                                     2013/04/01:2013/04/30獎金                                                  
600194035025120130610000000036140020002108724068020060213000000王朝威                                            L124322049                                                                                                                        東蘊生技股份有限公司3          jess940301@yahoo.com.tw                                     2013/04/01:2013/04/30獎金                                                  
600194035025320130610000000014400020004735404640348220473000000柯佳利                                            B222533879                                                                                                                        東蘊生技股份有限公司3          a0956890900@gmail.com                                       2013/04/01:2013/04/30獎金                                                  
600194035025420130610000000009600020004625402557598220462000000張荐琄                                            S123825243                                                                                                                        東蘊生技股份有限公司3                                                                      2013/04/01:2013/04/30獎金                                                  
600194035025520130610000000000600020403551455081000094035000000逸婷哈娜                                          Q223660564                                                                                                                        東蘊生技股份有限公司3          ilovebabybay@gmail.com                                      2013/04/01:2013/04/30獎金                                                  
600194035025620130610000000000600020403551455081000094035000000逸婷哈娜                                          Q223660564                                                                                                                        東蘊生技股份有限公司3          ilovebabybay@gmail.com                                      2013/04/01:2013/04/30獎金                                                  
600194035025720130610000000000600020403551455081000094035000000逸婷哈娜                                          Q223660564                                                                                                                        東蘊生技股份有限公司3          ilovebabybay@gmail.com                                      2013/04/01:2013/04/30獎金                                                  
600194035025820130610000000020720020002107657237220060213000000王秀蕙                                            L224539466                                                                                                                        東蘊生技股份有限公司3                                                                      2013/04/01:2013/04/30獎金                                                  
600194035025920130610000000002550020036610000934671020366000000李世偉                                            N125062633                                                                                                                        東蘊生技股份有限公司3                                                                      2013/04/01:2013/04/30獎金                                                  
600194035026020130610000000001800020014126006522547000021000000黃冠哲                                            P123194535                                                                                                                        東蘊生技股份有限公司3          loverstar0128@hotmail.com                                   2013/04/01:2013/04/30獎金                                                  
600194035026120130610000000001800020000187806281057000021000000陳施螢                                            A226306984                                                                                                                        東蘊生技股份有限公司3          pucca51834@yahoo.com.tw                                     2013/04/01:2013/04/30獎金                                                  
600194035026220130610000000001800020014102602016877000021000000洪煥勛                                            L124026079                                                                                                                        東蘊生技股份有限公司3                                                                      2013/04/01:2013/04/30獎金                                                  
600194035026320130610000000001800020014143801559737000021000000陳俊宇                                            L123956603                                                                                                                        東蘊生技股份有限公司3          h36try@yahoo.com.tw                                         2013/04/01:2013/04/30獎金                                                  
600194035026420130610000000014400020014139500196487000021000000陳冠儒                                            L124351406                                                                                                                        東蘊生技股份有限公司3                                                                      2013/04/01:2013/04/30獎金                                                  
600194035026520130610000000000600020620451361192000096204000000蔡宜倫                                            E223911585                                                                                                                        東蘊生技股份有限公司3                                                                      2013/04/01:2013/04/30獎金                                                  
600194035026620130610000000026400020620451361192000096204000000蔡宜倫                                            E223911585                                                                                                                        東蘊生技股份有限公司3                                                                      2013/04/01:2013/04/30獎金                                                  
600194035026720130610000000045000020620451361192000096204000000蔡宜倫                                            E223911585                                                                                                                        東蘊生技股份有限公司3                                                                      2013/04/01:2013/04/30獎金                                                  
600194035026920130610000000002720020014140711343767000021000000許冠慈                                            L123894402                                                                                                                        東蘊生技股份有限公司3          anthur514@gmail.com                                         2013/04/01:2013/04/30獎金                                                  
600194035027020130610000000003820020014140711343767000021000000許冠慈                                            L123894402                                                                                                                        東蘊生技股份有限公司3          anthur514@gmail.com                                         2013/04/01:2013/04/30獎金                                                  
600194035027120130610000000002820020060197656273410066019000000王屹群                                            L124126010                                                                                                                        東蘊生技股份有限公司3                                                                      2013/04/01:2013/04/30獎金                                                  
600194035027220130610000000000650020050127657335840065012000000詹雯傑                                            M122221620                                                                                                                        東蘊生技股份有限公司3                                                                      2013/04/01:2013/04/30獎金                                                  
600194035027320130610000000074940020060197656273410066019000000王屹群                                            L124126010                                                                                                                        東蘊生技股份有限公司3          iamgod0613@yahoo.com.tw                                     2013/04/01:2013/04/30獎金                                                  
600194035027420130610000000000650020034098720291300063409000000呂錫明                                            Q123444960                                                                                                                        東蘊生技股份有限公司3                                                                      2013/04/01:2013/04/30獎金                                                  
600194035027520130610000000016800020014102601677067000021000000余昇達                                            L123038619                                                                                                                        東蘊生技股份有限公司3          da0857@gmail.com                                            2013/04/01:2013/04/30獎金                                                  
600194035027620130610000000000650020003925402943728220392000000王朝棠                                            L122833370                                                                                                                        東蘊生技股份有限公司3          ujw53020000@yahoo.com.tw                                    2013/04/01:2013/04/30獎金                                                  
600194035027720130610000000000650020004735406668298220473000000廖政昌                                            L124327786                                                                                                                        東蘊生技股份有限公司3          kido771019@yahoo.com.tw                                     2013/04/01:2013/04/30獎金                                                  
600194035027820130610000000016800020014102601677067000021000000余昇達                                            L123038619                                                                                                                        東蘊生技股份有限公司3                                                                      2013/04/01:2013/04/30獎金                                                  
600194035027920130610000000000650020004735406668298220473000000廖政昌                                            L124327786                                                                                                                        東蘊生技股份有限公司3          kido771019@yahoo.com.tw                                     2013/04/01:2013/04/30獎金                                                  
600194035028020130610000000001800020030124100780307000021000000王凱民                                            P123612583                                                                                                                        東蘊生技股份有限公司3                                                                      2013/04/01:2013/04/30獎金                                                  
600194035028120130610000000015000020030124100780307000021000000王凱民                                            P123612583                                                                                                                        東蘊生技股份有限公司3                                                                      2013/04/01:2013/04/30獎金                                                  
600194035028220130610000000134460020030124100780307000021000000王凱民                                            P123612583                                                                                                                        東蘊生技股份有限公司3                                                                      2013/04/01:2013/04/30獎金                                                  
600194035028320130610000000023950020004735403710178220473000000張欽沛                                            L123570809                                                                                                                        東蘊生技股份有限公司3                                                                      2013/04/01:2013/04/30獎金                                                  
600194035028420130610000000001800020612451059583000096124000000吳家維                                            F126891025                                                                                                                        東蘊生技股份有限公司3                                                                      2013/04/01:2013/04/30獎金                                                  
600194035028520130610000000005470020612451059583000096124000000吳家維                                            F126891025                                                                                                                        東蘊生技股份有限公司3                                                                      2013/04/01:2013/04/30獎金                                                  
600194035028620130610000000017450020612451059583000096124000000吳家維                                            F126891025                                                                                                                        東蘊生技股份有限公司3                                                                      2013/04/01:2013/04/30獎金                                                  
600194035028720130610000000005470020612451059583000096124000000吳家維                                            F126891025                                                                                                                        東蘊生技股份有限公司3                                                                      2013/04/01:2013/04/30獎金                                                  
600194035028820130610000000230910020612451059583000096124000000吳家維                                            F126891025                                                                                                                        東蘊生技股份有限公司3                                                                      2013/04/01:2013/04/30獎金                                                  
600194035028920130610000000000650020014112100685987000021000000林智源                                            A127807399                                                                                                                        東蘊生技股份有限公司3          fwduo@yahoo.com.tw                                          2013/04/01:2013/04/30獎金                                                  
600194035029020130610000000000650020014112100685987000021000000林智源                                            A127807399                                                                                                                        東蘊生技股份有限公司3          fwduo@yahoo.com.tw                                          2013/04/01:2013/04/30獎金                                                  
600194035029120130610000000006650020014102601536827000021000000傅祈揚                                            L124037983                                                                                                                        東蘊生技股份有限公司3          l7304111230@yahoo.com.tw                                    2013/04/01:2013/04/30獎金                                                  
600194035029220130610000000000650020014102601536827000021000000傅祈揚                                            L124037983                                                                                                                        東蘊生技股份有限公司3          l7304111230@yahoo.com.tw                                    2013/04/01:2013/04/30獎金                                                  
600194035029320130610000000000650020014126006534937000021000000宋仁豪                                            B122328876                                                                                                                        東蘊生技股份有限公司3          wtry98@hotmail.com                                          2013/04/01:2013/04/30獎金                                                  
600194035029420130610000000000650020014126006534937000021000000宋仁豪                                            B122328876                                                                                                                        東蘊生技股份有限公司3          wtry98@hotmail.com                                          2013/04/01:2013/04/30獎金                                                  
600194035029520130610000000000650020014130200481357000021000000周汶蓁                                            L223507308                                                                                                                        東蘊生技股份有限公司3          power13578@yahoo.com.tw                                     2013/04/01:2013/04/30獎金                                                  
600194035029620130610000000000650020014130200481357000021000000周汶蓁                                            L223507308                                                                                                                        東蘊生技股份有限公司3          power13578@yahoo.com.tw                                     2013/04/01:2013/04/30獎金                                                  
600194035029720130610000000012650020004735403710178220473000000張欽沛                                            L123570809                                                                                                                        東蘊生技股份有限公司3          a0927810177@gmail.com                                       2013/04/01:2013/04/30獎金                                                  
600194035029820130610000000000650020004735403710178220473000000張欽沛                                            L123570809                                                                                                                        東蘊生技股份有限公司3          a0927810177@gmail.com                                       2013/04/01:2013/04/30獎金                                                  
600194035029920130610000000010400020004735403710178220473000000張欽沛                                            L123570809                                                                                                                        東蘊生技股份有限公司3          a0927810177@gmail.com                                       2013/04/01:2013/04/30獎金                                                  
